{
 "data": [
   {
     "store_id": "19bcb662-659a-4d5a-a2bc-0568fac4963d", "tags": "TV Mobile Laptop Desktop Music Ipad Iphone Speaker USB Cable Kinddle Mic"
   },
   {
     "store_id": "62e0ec3b-f627-4bec-8120-feae41d22998", "tags": "TV Mobile Laptop Desktop Music Ipad Iphone Speaker USB Cable Kinddle Mic"
   },
   {
     "store_id": "5ded7823-a3d8-4c10-9951-9986091b6cde", "tags": "Ring Neckless Diamond Ring Platimun Ring"
   },
   {
     "store_id": "c28ba9af-9086-4495-8c4a-441b5a499620", "tags": "Sport Shoes Sleepers Formal Shoes Football Shoes"
   }
 ]
}
